…
``` r
Mr_TW_df = 
  read_excel("data/202309 Trash Wheel Collection Data.xlsx",
             sheet = "Mr. Trash Wheel", range = "A2:N586") |>
  janitor::clean_names() |>
  drop_na(dumpster) |>
  mutate(homes_powered = weight_tons * 500 / 30,
         wheel_type = c("MTW"),
         year = as.numeric(year)) |>
  relocate(dumpster, wheel_type)

Mr_TW_df
```

    ## # A tibble: 584 × 15
    ##    dumpster wheel_type month  year date                weight_tons
    ##       <dbl> <chr>      <chr> <dbl> <dttm>                    <dbl>
    ##  1        1 MTW        May    2014 2014-05-16 00:00:00        4.31
    ##  2        2 MTW        May    2014 2014-05-16 00:00:00        2.74
    ##  3        3 MTW        May    2014 2014-05-16 00:00:00        3.45
    ##  4        4 MTW        May    2014 2014-05-17 00:00:00        3.1 
    ##  5        5 MTW        May    2014 2014-05-17 00:00:00        4.06
    ##  6        6 MTW        May    2014 2014-05-20 00:00:00        2.71
    ##  7        7 MTW        May    2014 2014-05-21 00:00:00        1.91
    ##  8        8 MTW        May    2014 2014-05-28 00:00:00        3.7 
    ##  9        9 MTW        June   2014 2014-06-05 00:00:00        2.52
    ## 10       10 MTW        June   2014 2014-06-11 00:00:00        3.76
    ## # ℹ 574 more rows
    ## # ℹ 9 more variables: volume_cubic_yards <dbl>, plastic_bottles <dbl>,
    ## #   polystyrene <dbl>, cigarette_butts <dbl>, glass_bottles <dbl>,
    ## #   plastic_bags <dbl>, wrappers <dbl>, sports_balls <dbl>, homes_powered <dbl>
…
``` r
Prof_TW_df = 
  read_excel("data/202309 Trash Wheel Collection Data.xlsx",
  sheet = "Professor Trash Wheel", range = "A2:M108") |>
  janitor::clean_names() |>
  drop_na(dumpster) |>
  mutate(homes_powered = weight_tons * 500 / 30,
         wheel_type = c("PTW")) |>
  relocate(dumpster, wheel_type)

Prof_TW_df
```

    ## # A tibble: 106 × 14
    ##    dumpster wheel_type month     year date                weight_tons
    ##       <dbl> <chr>      <chr>    <dbl> <dttm>                    <dbl>
    ##  1        1 PTW        January   2017 2017-01-02 00:00:00        1.79
    ##  2        2 PTW        January   2017 2017-01-30 00:00:00        1.58
    ##  3        3 PTW        February  2017 2017-02-26 00:00:00        2.32
    ##  4        4 PTW        February  2017 2017-02-26 00:00:00        3.72
    ##  5        5 PTW        February  2017 2017-02-28 00:00:00        1.45
    ##  6        6 PTW        March     2017 2017-03-30 00:00:00        1.71
    ##  7        7 PTW        April     2017 2017-04-01 00:00:00        1.82
    ##  8        8 PTW        April     2017 2017-04-20 00:00:00        2.37
    ##  9        9 PTW        May       2017 2017-05-10 00:00:00        2.64
    ## 10       10 PTW        May       2017 2017-05-26 00:00:00        2.78
    ## # ℹ 96 more rows
    ## # ℹ 8 more variables: volume_cubic_yards <dbl>, plastic_bottles <dbl>,
    ## #   polystyrene <dbl>, cigarette_butts <dbl>, glass_bottles <dbl>,
    ## #   plastic_bags <dbl>, wrappers <dbl>, homes_powered <dbl>
…
``` r
Gwynnda_TW_df = 
  read_excel("data/202309 Trash Wheel Collection Data.xlsx",
  sheet = "Gwynnda Trash Wheel", range = "A2:L157") |>
  janitor::clean_names() |>
  drop_na(dumpster) |>
  mutate(homes_powered = weight_tons * 500 / 30,
         wheel_type = c("GTW")) |>
  relocate(dumpster, wheel_type)

Gwynnda_TW_df
```

    ## # A tibble: 155 × 13
    ##    dumpster wheel_type month   year date                weight_tons
    ##       <dbl> <chr>      <chr>  <dbl> <dttm>                    <dbl>
    ##  1        1 GTW        July    2021 2021-07-03 00:00:00        0.93
    ##  2        2 GTW        July    2021 2021-07-07 00:00:00        2.26
    ##  3        3 GTW        July    2021 2021-07-07 00:00:00        1.62
    ##  4        4 GTW        July    2021 2021-07-16 00:00:00        1.76
    ##  5        5 GTW        July    2021 2021-07-30 00:00:00        1.53
    ##  6        6 GTW        August  2021 2021-08-11 00:00:00        2.06
    ##  7        7 GTW        August  2021 2021-08-14 00:00:00        1.9 
    ##  8        8 GTW        August  2021 2021-08-16 00:00:00        2.16
    ##  9        9 GTW        August  2021 2021-08-16 00:00:00        2.6 
    ## 10       10 GTW        August  2021 2021-08-17 00:00:00        3.21
    ## # ℹ 145 more rows
    ## # ℹ 7 more variables: volume_cubic_yards <dbl>, plastic_bottles <dbl>,
    ## #   polystyrene <dbl>, cigarette_butts <dbl>, plastic_bags <dbl>,
    ## #   wrappers <dbl>, homes_powered <dbl>

Combine the Professor and Gwynnda Trash Wheel with the Mr. Trash Wheel
dataset to produce a single tidy dataset

``` r
Final_TW_df = bind_rows(Mr_TW_df, Prof_TW_df, Gwynnda_TW_df)

Final_TW_df
```

    ## # A tibble: 845 × 15
    ##    dumpster wheel_type month  year date                weight_tons
    ##       <dbl> <chr>      <chr> <dbl> <dttm>                    <dbl>
    ##  1        1 MTW        May    2014 2014-05-16 00:00:00        4.31
    ##  2        2 MTW        May    2014 2014-05-16 00:00:00        2.74
    ##  3        3 MTW        May    2014 2014-05-16 00:00:00        3.45
    ##  4        4 MTW        May    2014 2014-05-17 00:00:00        3.1 
    ##  5        5 MTW        May    2014 2014-05-17 00:00:00        4.06
    ##  6        6 MTW        May    2014 2014-05-20 00:00:00        2.71
    ##  7        7 MTW        May    2014 2014-05-21 00:00:00        1.91
    ##  8        8 MTW        May    2014 2014-05-28 00:00:00        3.7 
    ##  9        9 MTW        June   2014 2014-06-05 00:00:00        2.52
    ## 10       10 MTW        June   2014 2014-06-11 00:00:00        3.76
    ## # ℹ 835 more rows
    ## # ℹ 9 more variables: volume_cubic_yards <dbl>, plastic_bottles <dbl>,
    ## #   polystyrene <dbl>, cigarette_butts <dbl>, glass_bottles <dbl>,
    ## #   plastic_bags <dbl>, wrappers <dbl>, sports_balls <dbl>, homes_powered <dbl>
…
    ## Rows: 483 Columns: 6
    ## ── Column specification ────────────────────────────────────────────────────────
    ## Delimiter: ","
    ## dbl (6): ID, Current Age, Sex, Education, apoe4, Age at onset
    ## 
    ## ℹ Use `spec()` to retrieve the full column specification for this data.
    ## ℹ Specify the column types or set `show_col_types = FALSE` to quiet this message.

``` r
MCI_Base
```

    ## # A tibble: 483 × 6
    ##       id current_age sex    education apoe4    age_at_onset
    ##    <dbl>       <dbl> <chr>      <dbl> <chr>           <dbl>
    ##  1     1        63.1 female        16 positive         NA  
    ##  2     2        65.6 female        20 positive         NA  
    ##  3     3        62.5 male          16 positive         66.8
    ##  4     4        69.8 female        16 negative         NA  
    ##  5     5        66   male          16 negative         68.7
    ##  6     6        62.5 male          16 negative         NA  
    ##  7     7        66.5 male          18 negative         74  
    ##  8     8        67.2 female        18 negative         NA  
    ##  9     9        66.7 female        16 negative         NA  
    ## 10    10        64.1 female        18 negative         NA  
    ## # ℹ 473 more rows
…
Discuss important steps in the import process and relevant features of
the dataset. 1. import the data and clean names. 2. drop participants
who do not meet the stated inclusion criteria 3. mutate sex and APOE4
carrier status to make sure they are not numeric.

``` r
MCI_Base_1 = 
  MCI_Base |>
  filter(age_at_onset - current_age > 0 | is.na(age_at_onset))

MCI_Base_1
```

    ## # A tibble: 479 × 6
    ##       id current_age sex    education apoe4    age_at_onset
    ##    <dbl>       <dbl> <chr>      <dbl> <chr>           <dbl>
    ##  1     1        63.1 female        16 positive         NA  
    ##  2     2        65.6 female        20 positive         NA  
    ##  3     3        62.5 male          16 positive         66.8
    ##  4     4        69.8 female        16 negative         NA  
    ##  5     5        66   male          16 negative         68.7
    ##  6     6        62.5 male          16 negative         NA  
    ##  7     7        66.5 male          18 negative         74  
    ##  8     8        67.2 female        18 negative         NA  
    ##  9     9        66.7 female        16 negative         NA  
    ## 10    10        64.1 female        18 negative         NA  
    ## # ℹ 469 more rows

How many participants were recruited, and of these how many developed
MCI? There are 479 individuals when we remove the individuals who
already have MCI at baseline.

``` r
MCI_Base_2 = 
  MCI_Base |>
  filter(age_at_onset - current_age > 0)

MCI_Base_2
```

    ## # A tibble: 93 × 6
    ##       id current_age sex    education apoe4    age_at_onset
    ##    <dbl>       <dbl> <chr>      <dbl> <chr>           <dbl>
    ##  1     3        62.5 male          16 positive         66.8
    ##  2     5        66   male          16 negative         68.7
    ##  3     7        66.5 male          18 negative         74  
    ##  4    13        63.1 male          12 positive         69  
    ##  5    14        58.4 female        20 negative         66.2
    ##  6    18        67.8 male          16 negative         69.8
    ##  7    22        67.3 female        20 positive         74.6
    ##  8    26        64.8 female        20 positive         71.1
    ##  9    30        66.3 female        12 negative         73.1
    ## 10    39        68.3 female        16 positive         70.2
    ## # ℹ 83 more rows
…
    ## Rows: 487 Columns: 6
    ## ── Column specification ────────────────────────────────────────────────────────
    ## Delimiter: ","
    ## chr (5): Baseline, Time 2, Time 4, Time 6, Time 8
    ## dbl (1): Study ID
    ## 
    ## ℹ Use `spec()` to retrieve the full column specification for this data.
    ## ℹ Specify the column types or set `show_col_types = FALSE` to quiet this message.

``` r
MCI_Amy
```

    ## # A tibble: 2,435 × 3
    ##       id follow_up_time apoe4      
    ##    <dbl> <chr>          <chr>      
    ##  1     1 time_0         0.1105487  
    ##  2     1 time_2         <NA>       
    ##  3     1 time_4         0.109325197
    ##  4     1 time_6         0.104756131
    ##  5     1 time_8         0.107257697
    ##  6     2 time_0         0.107481183
    ##  7     2 time_2         0.109157373
    ##  8     2 time_4         0.109457839
    ##  9     2 time_6         0.105729713
    ## 10     2 time_8         0.10661845 
    ## # ℹ 2,425 more rows
…
``` r
Amy
```

    ## # A tibble: 80 × 3
    ##       id follow_up_time apoe4      
    ##    <dbl> <chr>          <chr>      
    ##  1    72 time_0         0.106965463
    ##  2    72 time_2         <NA>       
    ##  3    72 time_4         0.107266218
    ##  4    72 time_6         0.106665207
    ##  5    72 time_8         <NA>       
    ##  6   234 time_0         0.110521689
    ##  7   234 time_2         0.110988335
    ##  8   234 time_4         0.110318671
    ##  9   234 time_6         0.107334344
    ## 10   234 time_8         0.108868811
    ## # ℹ 70 more rows

``` r
Merge_MCI
```

    ## # A tibble: 2,355 × 8
    ##       id current_age sex   education apoe4.x age_at_onset follow_up_time apoe4.y
    ##    <dbl>       <dbl> <chr>     <dbl> <chr>          <dbl> <chr>          <chr>  
    ##  1     1        63.1 fema…        16 positi…           NA time_0         0.1105…
    ##  2     1        63.1 fema…        16 positi…           NA time_2         <NA>   
    ##  3     1        63.1 fema…        16 positi…           NA time_4         0.1093…
    ##  4     1        63.1 fema…        16 positi…           NA time_6         0.1047…
    ##  5     1        63.1 fema…        16 positi…           NA time_8         0.1072…
    ##  6     2        65.6 fema…        20 positi…           NA time_0         0.1074…
    ##  7     2        65.6 fema…        20 positi…           NA time_2         0.1091…
    ##  8     2        65.6 fema…        20 positi…           NA time_4         0.1094…
    ##  9     2        65.6 fema…        20 positi…           NA time_6         0.1057…
    ## 10     2        65.6 fema…        20 positi…           NA time_8         0.1066…
    ## # ℹ 2,345 more rows
…
